Reproducible Research Project 1
…
## The following objects are masked from 'package:lubridate':
## 
##     intersect, setdiff, union

## The following objects are masked from 'package:stats':
## 
##     filter, lag

## The following objects are masked from 'package:base':
## 
##     intersect, setdiff, setequal, union

total_steps <- activity %>% group_by(date) %>% summarize(total=sum(steps, na.rm=TRUE)) %>% print

## # A tibble: 61 x 2
##    date       total
##    <date>     <dbl>
##  1 2012-10-01     0
##  2 2012-10-02   126
##  3 2012-10-03 11352
##  4 2012-10-04 12116
##  5 2012-10-05 13294
##  6 2012-10-06 15420
##  7 2012-10-07 11015
##  8 2012-10-08     0
##  9 2012-10-09 12811
## 10 2012-10-10  9900
## # ... with 51 more rows
…
